1,The Lord Of The Rings Trilogy,J.R.R. Tolkien,0
2,The Hitchhiker's Guide To The Galaxy,Douglas Adams,0
3,Ender's Game,Orson Scott Card,0
4,The Dune Chronicles,Frank Herbert,0
5,A Song Of Ice And Fire Series,George R. R. Martin,1
6,1984,George Orwell,1
7,Fahrenheit 451,Ray Bradbury,0
8,The Foundation Trilogy,Isaac Asimov,0
9,Brave New World,Aldous Huxley,0
10,American Gods,Neil Gaiman,1
11,The Princess Bride,William Goldman,0
12,The Wheel Of Time Series,Robert Jordan,0
13,Animal Farm,George Orwell,1
14,Neuromancer,William Gibson,0
15,Watchmen,Alan Moore,1
16,I Robot,Isaac Asimov,0
17,Stranger In A Strange Land,Robert Heinlein,0
18,The Kingkiller Chronicles,Patrick Rothfuss,0
19,Slaughterhouse-Five,Kurt Vonnegut,1
20,Frankenstein,Mary Shelley,0
21,Do Androids Dream Of Electric Sheep?,Philip K. Dick,0
22,The Handmaid's Tale,Margaret Atwood,0
23,The Dark Tower Series,Stephen King,0
24,2001: A Space Odyssey,Arthur C. Clarke,0
25,The Stand,Stephen King,0
26,Snow Crash,Neal Stephenson,0
27,The Martian Chronicles,Ray Bradbury,0
28,Cat's Cradle,Kurt Vonnegut,0
29,The Sandman Series,Neil Gaiman,0
30,A Clockwork Orange,Anthony Burgess,0
31,Starship Troopers,Robert Heinlein,0
32,Watership Down,Richard Adams,0
33,Dragonflight,Anne McCaffrey,0
34,The Moon Is A Harsh Mistress,Robert Heinlein,0
35,A Canticle For Leibowitz,Walter M. Miller,0
36,The Time Machine,H.G. Wells,0
37,20 000 Leagues Under The Sea,Jules Verne,0
38,Flowers For Algernon,Daniel Keys,0
39,The War Of The Worlds,H.G. Wells,0
40,The Chronicles Of Amber,Roger Zelazny,0
41,The Belgariad,David Eddings,0
42,The Mists Of Avalon,Marion Zimmer Bradley,0
43,The Mistborn Series,Brandon Sanderson,0
44,Ringworld,Larry Niven,0
45,The Left Hand Of Darkness,Ursula K. LeGuin,0
46,The Silmarillion,J.R.R. Tolkien,0
47,The Once And Future King,T.H. White,0
48,Neverwhere,Neil Gaiman,0
49,Childhood's End,Arthur C. Clarke,0
50,Contact,Carl Sagan,0
51,The Hyperion Cantos,Dan Simmons,0
52,Stardust,Neil Gaiman,0
53,Cryptonomicon,Neal Stephenson,0
54,World War Z,Max Brooks,0
55,The Last Unicorn,Peter S. Beagle,0
56,The Forever War,Joe Haldeman,0
57,Small Gods,Terry Pratchett,0
58,The Chronicles Of Thomas Covenant The Unbeliever,Stephen R. Donaldson,0
59,The Vorkosigan Saga,Lois McMaster Bujold,0
60,Going Postal,Terry Pratchett,0
61,The Mote In God's Eye,Larry Niven & Jerry Pournelle,0
62,The Sword Of Truth,Terry Goodkind,0
63,The Road,Cormac McCarthy,1
64,Jonathan Strange & Mr Norrell,Susanna Clarke,0
65,I Am Legend,Richard Matheson,0
66,The Riftwar Saga,Raymond E. Feist,0
67,The Shannara Trilogy,Terry Brooks,0
68,The Conan The Barbarian Series,R.E. Howard,0
69,The Farseer Trilogy,Robin Hobb,0
70,The Time Traveler's Wife,Audrey Niffenegger,0
71,The Way Of Kings,Brandon Sanderson,0
72,A Journey To The Center Of The Earth,Jules Verne,0
73,The Legend Of Drizzt Series,R.A. Salvatore,0
74,Old Man's War,John Scalzi,0
75,The Diamond Age,Neil Stephenson,0
76,Rendezvous With Rama,Arthur C. Clarke,0
77,The Kushiel's Legacy Series,Jacqueline Carey,0
78,The Dispossessed,Ursula K. LeGuin,0
79,Something Wicked This Way Comes,Ray Bradbury,0
80,Wicked,Gregory Maguire,0
81,The Malazan Book Of The Fallen Series,Steven Erikson,0
82,The Eyre Affair,Jasper Fforde,0
83,The Culture Series,Iain M. Banks,0
84,The Crystal Cave,Mary Stewart,0
85,Anathem,Neal Stephenson,0
86,The Codex Alera Series,Jim Butcher,0
87,The Book Of The New Sun,Gene Wolfe,0
88,The Thrawn Trilogy,Timothy Zahn,0
89,The Outlander Series,Diana Gabaldan,0
90,The Elric Saga,Michael Moorcock,0
91,The Illustrated Man,Ray Bradbury,0
92,Sunshine,Robin McKinley,0
93,A Fire Upon The Deep,Vernor Vinge,0
94,The Caves Of Steel,Isaac Asimov,0
95,The Mars Trilogy,Kim Stanley Robinson,0
96,Lucifer's Hammer,Larry Niven & Jerry Pournelle,0
97,Doomsday Book,Connie Willis,0
98,Perdido Street Station,China Mieville,0
99,The Xanth Series,Piers Anthony,0
100,The Space Trilogy,C.S. Lewis,0
